%YAML 1.1
%TAG !u! tag:unity3d.com,2011:
--- !u!74 &7400000
AnimationClip:
  m_ObjectHideFlags: 0
  m_CorrespondingSourceObject: {fileID: 0}
  m_PrefabInstance: {fileID: 0}
  m_PrefabAsset: {fileID: 0}
  m_Name: Left
  serializedVersion: 6
  m_Legacy: 0
  m_Compressed: 0
  m_UseHighQualityCurve: 1
  m_RotationCurves: []
  m_CompressedRotationCurves: []
  m_EulerCurves: []
  m_PositionCurves: []
  m_ScaleCurves: []
  m_FloatCurves: []
  m_PPtrCurves:
  - curve:
    - time: 0
      value: {fileID: 21300000, guid: dbef6cf20a0cd4e55b1a7493737bf7fa, type: 3}
    - time: 0.083333336
      value: {fileID: 21300000, guid: e188c1c2db7da423084d4ccce5aa4818, type: 3}
    - time: 0.16666667
      value: {fileID: 21300000, guid: 14a5d1653616843359bf70be5e48f630, type: 3}
    - time: 0.25
      value: {fileID: 21300000, guid: c14c9dd4db2b240398e04d478c1c7e2a, type: 3}
    - time: 0.33333334
      value: {fileID: 21300000, guid: a7e867ce749a44f2c99555c3ba42a08a, type: 3}
    - time: 0.41666666
      value: {fileID: 21300000, guid: eeea8ffb7bb754d9ba55375bff228771, type: 3}
    - time: 0.5
      value: {fileID: 21300000, guid: 0c8e80be0613d453494d5fdaff5144b0, type: 3}
    - time: 0.5833333
      value: {fileID: 21300000, guid: bb2e7b97eddc64fb2815df5924b5d9c1, type: 3}
    - time: 0.6666667
      value: {fileID: 21300000, guid: 5741cca79253345c98074b45ca4dbbf0, type: 3}
    - time: 0.75
      value: {fileID: 21300000, guid: 9a835c3fb01564502a33b64d26924f19, type: 3}
    - time: 0.8333333
      value: {fileID: 21300000, guid: f48e732d5f3ff4a7085fdb820ebbbf32, type: 3}
    - time: 0.9166667
      value: {fileID: 21300000, guid: 82c8369f93d0a48d09119afeec927140, type: 3}
    - time: 1
      value: {fileID: 21300000, guid: 8b584b47e7bc0470f80ad0690e86c6d9, type: 3}
    attribute: m_Sprite
    path: 
    classID: 212
    script: {fileID: 0}
  m_SampleRate: 12
  m_WrapMode: 0
  m_Bounds:
    m_Center: {x: 0, y: 0, z: 0}
    m_Extent: {x: 0, y: 0, z: 0}
  m_ClipBindingConstant:
    genericBindings:
    - serializedVersion: 2
      path: 0
      attribute: 0
      script: {fileID: 0}
      typeID: 212
      customType: 23
      isPPtrCurve: 1
    pptrCurveMapping:
    - {fileID: 21300000, guid: dbef6cf20a0cd4e55b1a7493737bf7fa, type: 3}
    - {fileID: 21300000, guid: e188c1c2db7da423084d4ccce5aa4818, type: 3}
    - {fileID: 21300000, guid: 14a5d1653616843359bf70be5e48f630, type: 3}
    - {fileID: 21300000, guid: c14c9dd4db2b240398e04d478c1c7e2a, type: 3}
    - {fileID: 21300000, guid: a7e867ce749a44f2c99555c3ba42a08a, type: 3}
    - {fileID: 21300000, guid: eeea8ffb7bb754d9ba55375bff228771, type: 3}
    - {fileID: 21300000, guid: 0c8e80be0613d453494d5fdaff5144b0, type: 3}
    - {fileID: 21300000, guid: bb2e7b97eddc64fb2815df5924b5d9c1, type: 3}
    - {fileID: 21300000, guid: 5741cca79253345c98074b45ca4dbbf0, type: 3}
    - {fileID: 21300000, guid: 9a835c3fb01564502a33b64d26924f19, type: 3}
    - {fileID: 21300000, guid: f48e732d5f3ff4a7085fdb820ebbbf32, type: 3}
    - {fileID: 21300000, guid: 82c8369f93d0a48d09119afeec927140, type: 3}
    - {fileID: 21300000, guid: 8b584b47e7bc0470f80ad0690e86c6d9, type: 3}
  m_AnimationClipSettings:
    serializedVersion: 2
    m_AdditiveReferencePoseClip: {fileID: 0}
    m_AdditiveReferencePoseTime: 0
    m_StartTime: 0
    m_StopTime: 1.0833334
    m_OrientationOffsetY: 0
    m_Level: 0
    m_CycleOffset: 0
    m_HasAdditiveReferencePose: 0
    m_LoopTime: 1
    m_LoopBlend: 0
    m_LoopBlendOrientation: 0
    m_LoopBlendPositionY: 0
    m_LoopBlendPositionXZ: 0
    m_KeepOriginalOrientation: 0
    m_KeepOriginalPositionY: 1
    m_KeepOriginalPositionXZ: 0
    m_HeightFromFeet: 0
    m_Mirror: 0
  m_EditorCurves: []
  m_EulerEditorCurves: []
  m_HasGenericRootTransform: 0
  m_HasMotionFloatCurves: 0
  m_Events: []
