%YAML 1.1
%TAG !u! tag:unity3d.com,2011:
--- !u!687078895 &4343727234628468602
SpriteAtlas:
  m_ObjectHideFlags: 0
  m_CorrespondingSourceObject: {fileID: 0}
  m_PrefabInstance: {fileID: 0}
  m_PrefabAsset: {fileID: 0}
  m_Name: Medusa Atlas
  m_EditorData:
    serializedVersion: 2
    textureSettings:
      serializedVersion: 2
      anisoLevel: 1
      compressionQuality: 50
      maxTextureSize: 2048
      textureCompression: 0
      filterMode: 1
      generateMipMaps: 0
      readable: 0
      crunchedCompression: 0
      sRGB: 1
    platformSettings: []
    packingSettings:
      serializedVersion: 2
      padding: 4
      blockOffset: 1
      allowAlphaSplitting: 0
      enableRotation: 1
      enableTightPacking: 1
    variantMultiplier: 1
    packables:
    - {fileID: 102900000, guid: f2cc06f2e15bf4339b713dcc0e4acd24, type: 3}
    - {fileID: 102900000, guid: 5b6de80098cab47d891c6d87b87ffc4a, type: 3}
    - {fileID: 102900000, guid: c22a9b6ced91149e494c37afbe4d986c, type: 3}
    totalSpriteSurfaceArea: 1752064
    bindAsDefault: 1
    isAtlasV2: 0
    cachedData: {fileID: 0}
  m_MasterAtlas: {fileID: 0}
  m_PackedSprites:
  - {fileID: 21300000, guid: a1c5482055def498ea0c86a99dd86427, type: 3}
  - {fileID: 21300000, guid: fb99537004e1949898ed84b535777350, type: 3}
  - {fileID: 21300000, guid: af5160909c142493c8917aff26be0975, type: 3}
  - {fileID: 21300000, guid: 2342f090b3952468bb191fd3a4094f34, type: 3}
  - {fileID: 21300000, guid: c6f5fea04949247f684af205daafb8df, type: 3}
  - {fileID: 21300000, guid: e188c1c2db7da423084d4ccce5aa4818, type: 3}
  - {fileID: 21300000, guid: dbef6cf20a0cd4e55b1a7493737bf7fa, type: 3}
  - {fileID: 21300000, guid: 1a2d73f386ee7435f803bad14183534d, type: 3}
  - {fileID: 21300000, guid: da55f9348b1e947ba8e389c206c35e65, type: 3}
  - {fileID: 21300000, guid: debe5784d2d824c13bdce05be8abf4fa, type: 3}
  - {fileID: 21300000, guid: c14c9dd4db2b240398e04d478c1c7e2a, type: 3}
  - {fileID: 21300000, guid: 14a5d1653616843359bf70be5e48f630, type: 3}
  - {fileID: 21300000, guid: e470472783bac4242ae547f6eb74a69f, type: 3}
  - {fileID: 21300000, guid: 8b584b47e7bc0470f80ad0690e86c6d9, type: 3}
  - {fileID: 21300000, guid: bb2e7b97eddc64fb2815df5924b5d9c1, type: 3}
  - {fileID: 21300000, guid: 5741cca79253345c98074b45ca4dbbf0, type: 3}
  - {fileID: 21300000, guid: 71bc9dc72393648b1bdedd619c9d0144, type: 3}
  - {fileID: 21300000, guid: 5d0181d87f83a4d6caba82216bbe05e3, type: 3}
  - {fileID: 21300000, guid: 4b92b11a2cc344ef2ba96a15605359c7, type: 3}
  - {fileID: 21300000, guid: 0f49f33b92f084f6192af0a7dea97fac, type: 3}
  - {fileID: 21300000, guid: eeea8ffb7bb754d9ba55375bff228771, type: 3}
  - {fileID: 21300000, guid: e992e8ccd8a264d9896d83b18b71786c, type: 3}
  - {fileID: 21300000, guid: f48e732d5f3ff4a7085fdb820ebbbf32, type: 3}
  - {fileID: 21300000, guid: cf1f6dbddd57c40589ef2a17b0fbfd56, type: 3}
  - {fileID: 21300000, guid: bcd54c4ed3a9a45f89c5a34b2acb4333, type: 3}
  - {fileID: 21300000, guid: 0c8e80be0613d453494d5fdaff5144b0, type: 3}
  - {fileID: 21300000, guid: a7e867ce749a44f2c99555c3ba42a08a, type: 3}
  - {fileID: 21300000, guid: 9a835c3fb01564502a33b64d26924f19, type: 3}
  - {fileID: 21300000, guid: 82c8369f93d0a48d09119afeec927140, type: 3}
  m_PackedSpriteNamesToIndex:
  - 10002
  - 10010
  - 10011
  - 10002
  - 10007
  - 10002
  - 10001
  - 10012
  - 10013
  - 10001
  - 10004
  - 10003
  - 10003
  - 10013
  - 10008
  - 10009
  - 10009
  - 10001
  - 10005
  - 10006
  - 10006
  - 10004
  - 10011
  - 10003
  - 10008
  - 10007
  - 10005
  - 10010
  - 10012
  m_Tag: Medusa Atlas
  m_IsVariant: 0
