%YAML 1.1
%TAG !u! tag:unity3d.com,2011:
--- !u!74 &7400000
AnimationClip:
  m_ObjectHideFlags: 0
  m_CorrespondingSourceObject: {fileID: 0}
  m_PrefabInstance: {fileID: 0}
  m_PrefabAsset: {fileID: 0}
  m_Name: Enemy2
  serializedVersion: 6
  m_Legacy: 0
  m_Compressed: 0
  m_UseHighQualityCurve: 1
  m_RotationCurves: []
  m_CompressedRotationCurves: []
  m_EulerCurves: []
  m_PositionCurves: []
  m_ScaleCurves: []
  m_FloatCurves: []
  m_PPtrCurves:
  - curve:
    - time: 0
      value: {fileID: 21300000, guid: 55478712ca41b4449a6a5df965cd54f0, type: 3}
    - time: 0.083333336
      value: {fileID: 21300000, guid: 8c89840b78d274c37b31fd05099c41fd, type: 3}
    - time: 0.16666667
      value: {fileID: 21300000, guid: 36027195ff10b4dfa98b1183bf04bb5a, type: 3}
    - time: 0.25
      value: {fileID: 21300000, guid: 423654822640e4c1f8650cb98478ab41, type: 3}
    - time: 0.33333334
      value: {fileID: 21300000, guid: 4f58285d45a244165b2b3f4326cd9316, type: 3}
    - time: 0.41666666
      value: {fileID: 21300000, guid: 3a7a2aa2217794d4483c2410a5f43eb3, type: 3}
    - time: 0.5
      value: {fileID: 21300000, guid: 981d4164cad7e47a585a7ac2898e9a2f, type: 3}
    - time: 0.5833333
      value: {fileID: 21300000, guid: cf2721e639a8446c3973d6fb998955df, type: 3}
    attribute: m_Sprite
    path: 
    classID: 212
    script: {fileID: 0}
  m_SampleRate: 12
  m_WrapMode: 0
  m_Bounds:
    m_Center: {x: 0, y: 0, z: 0}
    m_Extent: {x: 0, y: 0, z: 0}
  m_ClipBindingConstant:
    genericBindings:
    - serializedVersion: 2
      path: 0
      attribute: 0
      script: {fileID: 0}
      typeID: 212
      customType: 23
      isPPtrCurve: 1
    pptrCurveMapping:
    - {fileID: 21300000, guid: 55478712ca41b4449a6a5df965cd54f0, type: 3}
    - {fileID: 21300000, guid: 8c89840b78d274c37b31fd05099c41fd, type: 3}
    - {fileID: 21300000, guid: 36027195ff10b4dfa98b1183bf04bb5a, type: 3}
    - {fileID: 21300000, guid: 423654822640e4c1f8650cb98478ab41, type: 3}
    - {fileID: 21300000, guid: 4f58285d45a244165b2b3f4326cd9316, type: 3}
    - {fileID: 21300000, guid: 3a7a2aa2217794d4483c2410a5f43eb3, type: 3}
    - {fileID: 21300000, guid: 981d4164cad7e47a585a7ac2898e9a2f, type: 3}
    - {fileID: 21300000, guid: cf2721e639a8446c3973d6fb998955df, type: 3}
  m_AnimationClipSettings:
    serializedVersion: 2
    m_AdditiveReferencePoseClip: {fileID: 0}
    m_AdditiveReferencePoseTime: 0
    m_StartTime: 0
    m_StopTime: 0.6666666
    m_OrientationOffsetY: 0
    m_Level: 0
    m_CycleOffset: 0
    m_HasAdditiveReferencePose: 0
    m_LoopTime: 1
    m_LoopBlend: 0
    m_LoopBlendOrientation: 0
    m_LoopBlendPositionY: 0
    m_LoopBlendPositionXZ: 0
    m_KeepOriginalOrientation: 0
    m_KeepOriginalPositionY: 1
    m_KeepOriginalPositionXZ: 0
    m_HeightFromFeet: 0
    m_Mirror: 0
  m_EditorCurves: []
  m_EulerEditorCurves: []
  m_HasGenericRootTransform: 0
  m_HasMotionFloatCurves: 0
  m_Events: []
