%YAML 1.1
%TAG !u! tag:unity3d.com,2011:
--- !u!74 &7400000
AnimationClip:
  m_ObjectHideFlags: 0
  m_CorrespondingSourceObject: {fileID: 0}
  m_PrefabInstance: {fileID: 0}
  m_PrefabAsset: {fileID: 0}
  m_Name: right
  serializedVersion: 6
  m_Legacy: 0
  m_Compressed: 0
  m_UseHighQualityCurve: 1
  m_RotationCurves: []
  m_CompressedRotationCurves: []
  m_EulerCurves: []
  m_PositionCurves: []
  m_ScaleCurves: []
  m_FloatCurves: []
  m_PPtrCurves:
  - curve:
    - time: 0
      value: {fileID: 21300000, guid: 07b96317552a74ccaa7fd2d29d4cda1b, type: 3}
    - time: 0.083333336
      value: {fileID: 21300000, guid: e1f8766fe719c40e681ce34a5a7304ef, type: 3}
    - time: 0.16666667
      value: {fileID: 21300000, guid: d1f0d567701154a759025d18e0173489, type: 3}
    - time: 0.25
      value: {fileID: 21300000, guid: 09530c1deb9e541269816e78dfaa9db6, type: 3}
    - time: 0.33333334
      value: {fileID: 21300000, guid: bb58180ac20004091a21bb156facf42f, type: 3}
    - time: 0.41666666
      value: {fileID: 21300000, guid: 0585e42e1e6ee428dbf5fab400828e4c, type: 3}
    - time: 0.5
      value: {fileID: 21300000, guid: 23ebed66040c24e949a4dfa98e0ded8e, type: 3}
    - time: 0.5833333
      value: {fileID: 21300000, guid: 581678bafb6d24067affa642c9c83376, type: 3}
    - time: 0.6666667
      value: {fileID: 21300000, guid: 16f97c1791dca4a89b56a60e8114bc7a, type: 3}
    - time: 0.75
      value: {fileID: 21300000, guid: b762108cf65d04ee0a0f1de7402b3c7b, type: 3}
    - time: 0.8333333
      value: {fileID: 21300000, guid: 58c446a8503b84c999359700def44009, type: 3}
    - time: 0.9166667
      value: {fileID: 21300000, guid: ee68c5f3efb084ac2b681622cc249c09, type: 3}
    - time: 1
      value: {fileID: 21300000, guid: c6d2d6d7d88d2457681a94fb74db1512, type: 3}
    attribute: m_Sprite
    path: 
    classID: 212
    script: {fileID: 0}
  m_SampleRate: 12
  m_WrapMode: 0
  m_Bounds:
    m_Center: {x: 0, y: 0, z: 0}
    m_Extent: {x: 0, y: 0, z: 0}
  m_ClipBindingConstant:
    genericBindings:
    - serializedVersion: 2
      path: 0
      attribute: 0
      script: {fileID: 0}
      typeID: 212
      customType: 23
      isPPtrCurve: 1
    pptrCurveMapping:
    - {fileID: 21300000, guid: 07b96317552a74ccaa7fd2d29d4cda1b, type: 3}
    - {fileID: 21300000, guid: e1f8766fe719c40e681ce34a5a7304ef, type: 3}
    - {fileID: 21300000, guid: d1f0d567701154a759025d18e0173489, type: 3}
    - {fileID: 21300000, guid: 09530c1deb9e541269816e78dfaa9db6, type: 3}
    - {fileID: 21300000, guid: bb58180ac20004091a21bb156facf42f, type: 3}
    - {fileID: 21300000, guid: 0585e42e1e6ee428dbf5fab400828e4c, type: 3}
    - {fileID: 21300000, guid: 23ebed66040c24e949a4dfa98e0ded8e, type: 3}
    - {fileID: 21300000, guid: 581678bafb6d24067affa642c9c83376, type: 3}
    - {fileID: 21300000, guid: 16f97c1791dca4a89b56a60e8114bc7a, type: 3}
    - {fileID: 21300000, guid: b762108cf65d04ee0a0f1de7402b3c7b, type: 3}
    - {fileID: 21300000, guid: 58c446a8503b84c999359700def44009, type: 3}
    - {fileID: 21300000, guid: ee68c5f3efb084ac2b681622cc249c09, type: 3}
    - {fileID: 21300000, guid: c6d2d6d7d88d2457681a94fb74db1512, type: 3}
  m_AnimationClipSettings:
    serializedVersion: 2
    m_AdditiveReferencePoseClip: {fileID: 0}
    m_AdditiveReferencePoseTime: 0
    m_StartTime: 0
    m_StopTime: 1.0833334
    m_OrientationOffsetY: 0
    m_Level: 0
    m_CycleOffset: 0
    m_HasAdditiveReferencePose: 0
    m_LoopTime: 1
    m_LoopBlend: 0
    m_LoopBlendOrientation: 0
    m_LoopBlendPositionY: 0
    m_LoopBlendPositionXZ: 0
    m_KeepOriginalOrientation: 0
    m_KeepOriginalPositionY: 1
    m_KeepOriginalPositionXZ: 0
    m_HeightFromFeet: 0
    m_Mirror: 0
  m_EditorCurves: []
  m_EulerEditorCurves: []
  m_HasGenericRootTransform: 0
  m_HasMotionFloatCurves: 0
  m_Events: []
