%YAML 1.1
%TAG !u! tag:unity3d.com,2011:
--- !u!74 &7400000
AnimationClip:
  m_ObjectHideFlags: 0
  m_CorrespondingSourceObject: {fileID: 0}
  m_PrefabInstance: {fileID: 0}
  m_PrefabAsset: {fileID: 0}
  m_Name: Apollo
  serializedVersion: 6
  m_Legacy: 0
  m_Compressed: 0
  m_UseHighQualityCurve: 1
  m_RotationCurves: []
  m_CompressedRotationCurves: []
  m_EulerCurves: []
  m_PositionCurves: []
  m_ScaleCurves: []
  m_FloatCurves: []
  m_PPtrCurves:
  - curve:
    - time: 0
      value: {fileID: 21300000, guid: 3d895959300904c129dde8d6060d7aa3, type: 3}
    - time: 0.06666667
      value: {fileID: 21300000, guid: abbb2b4f7ce4e4a96bb8eced8fe81ed1, type: 3}
    - time: 0.13333334
      value: {fileID: 21300000, guid: a13576abf05f74023a7311c198542fb3, type: 3}
    - time: 0.2
      value: {fileID: 21300000, guid: 03fd3e6ba534d45f78de5b9d1eed1cf9, type: 3}
    - time: 0.26666668
      value: {fileID: 21300000, guid: 25c8ec9a3852f4bc1a4085170c8109cf, type: 3}
    - time: 0.33333334
      value: {fileID: 21300000, guid: bd6beb73d09c746c6a4101b32caf1ed5, type: 3}
    - time: 0.4
      value: {fileID: 21300000, guid: 9ee1e2392f69b4dd2994d9b6037328b9, type: 3}
    - time: 0.46666667
      value: {fileID: 21300000, guid: af6e667b42dfa44f7ae88a099f98ef69, type: 3}
    attribute: m_Sprite
    path: 
    classID: 114
    script: {fileID: -765806418, guid: f70555f144d8491a825f0804e09c671c, type: 3}
  m_SampleRate: 15
  m_WrapMode: 0
  m_Bounds:
    m_Center: {x: 0, y: 0, z: 0}
    m_Extent: {x: 0, y: 0, z: 0}
  m_ClipBindingConstant:
    genericBindings:
    - serializedVersion: 2
      path: 0
      attribute: 2015549526
      script: {fileID: -765806418, guid: f70555f144d8491a825f0804e09c671c, type: 3}
      typeID: 114
      customType: 0
      isPPtrCurve: 1
    pptrCurveMapping:
    - {fileID: 21300000, guid: 3d895959300904c129dde8d6060d7aa3, type: 3}
    - {fileID: 21300000, guid: abbb2b4f7ce4e4a96bb8eced8fe81ed1, type: 3}
    - {fileID: 21300000, guid: a13576abf05f74023a7311c198542fb3, type: 3}
    - {fileID: 21300000, guid: 03fd3e6ba534d45f78de5b9d1eed1cf9, type: 3}
    - {fileID: 21300000, guid: 25c8ec9a3852f4bc1a4085170c8109cf, type: 3}
    - {fileID: 21300000, guid: bd6beb73d09c746c6a4101b32caf1ed5, type: 3}
    - {fileID: 21300000, guid: 9ee1e2392f69b4dd2994d9b6037328b9, type: 3}
    - {fileID: 21300000, guid: af6e667b42dfa44f7ae88a099f98ef69, type: 3}
  m_AnimationClipSettings:
    serializedVersion: 2
    m_AdditiveReferencePoseClip: {fileID: 0}
    m_AdditiveReferencePoseTime: 0
    m_StartTime: 0
    m_StopTime: 0.53333336
    m_OrientationOffsetY: 0
    m_Level: 0
    m_CycleOffset: 0
    m_HasAdditiveReferencePose: 0
    m_LoopTime: 1
    m_LoopBlend: 0
    m_LoopBlendOrientation: 0
    m_LoopBlendPositionY: 0
    m_LoopBlendPositionXZ: 0
    m_KeepOriginalOrientation: 0
    m_KeepOriginalPositionY: 1
    m_KeepOriginalPositionXZ: 0
    m_HeightFromFeet: 0
    m_Mirror: 0
  m_EditorCurves: []
  m_EulerEditorCurves: []
  m_HasGenericRootTransform: 0
  m_HasMotionFloatCurves: 0
  m_Events: []
