%YAML 1.1
%TAG !u! tag:unity3d.com,2011:
--- !u!687078895 &4343727234628468602
SpriteAtlas:
  m_ObjectHideFlags: 0
  m_CorrespondingSourceObject: {fileID: 0}
  m_PrefabInstance: {fileID: 0}
  m_PrefabAsset: {fileID: 0}
  m_Name: Poseidon Atlas
  m_EditorData:
    serializedVersion: 2
    textureSettings:
      serializedVersion: 2
      anisoLevel: 1
      compressionQuality: 50
      maxTextureSize: 2048
      textureCompression: 0
      filterMode: 1
      generateMipMaps: 0
      readable: 0
      crunchedCompression: 0
      sRGB: 1
    platformSettings: []
    packingSettings:
      serializedVersion: 2
      padding: 4
      blockOffset: 1
      allowAlphaSplitting: 0
      enableRotation: 1
      enableTightPacking: 1
    variantMultiplier: 1
    packables:
    - {fileID: 102900000, guid: 257b4955fd17747e48f7ebc0d18fb16b, type: 3}
    - {fileID: 102900000, guid: 48f587ba41a8e46c49df4697f5484ffc, type: 3}
    - {fileID: 102900000, guid: 505dcbdd3c3694932b956785d0d39f1d, type: 3}
    totalSpriteSurfaceArea: 1752064
    bindAsDefault: 1
    isAtlasV2: 0
    cachedData: {fileID: 0}
  m_MasterAtlas: {fileID: 0}
  m_PackedSprites:
  - {fileID: 21300000, guid: db6c1d00dcfc5477c80e827fe0f5f2f4, type: 3}
  - {fileID: 21300000, guid: 5178e1b0e901743c88e61f68627b3b48, type: 3}
  - {fileID: 21300000, guid: 205c3911330844afaac7ac5c423f3a00, type: 3}
  - {fileID: 21300000, guid: 0a70e9f10c590416386688d97c499da0, type: 3}
  - {fileID: 21300000, guid: 63f944135f22740f992137f1ba83fdf3, type: 3}
  - {fileID: 21300000, guid: f67984139d4ca4b10a044b49ce4961c4, type: 3}
  - {fileID: 21300000, guid: 71c5aab39af414fc08e8938e988d732e, type: 3}
  - {fileID: 21300000, guid: 82a2d80463dc6489a9bfd1064f37ba09, type: 3}
  - {fileID: 21300000, guid: 03bed3f46b87a4166b21b80cb681bccc, type: 3}
  - {fileID: 21300000, guid: 32ef532519f20423f96aa2f078ed7ed2, type: 3}
  - {fileID: 21300000, guid: 45f247e5433ad4f988f89c6296a888e1, type: 3}
  - {fileID: 21300000, guid: 67cdbae5b04dd4246bc29b562fb232c9, type: 3}
  - {fileID: 21300000, guid: 09969b46633f9484eb50e77039637811, type: 3}
  - {fileID: 21300000, guid: 2fe3b498563394286b8722d4d298a51e, type: 3}
  - {fileID: 21300000, guid: 4ceb8b49687754da0be8d98da7aed633, type: 3}
  - {fileID: 21300000, guid: baf386590e0af4ff4a5bfeecd384ebe6, type: 3}
  - {fileID: 21300000, guid: d3f2cf59580d743be8b8c7074d91d6f4, type: 3}
  - {fileID: 21300000, guid: 7a0b833a2b6c44f77b2a95ca7329a476, type: 3}
  - {fileID: 21300000, guid: c5748b8a6eb5c468590d77e4de3e2413, type: 3}
  - {fileID: 21300000, guid: 29f0a06bb26624a4a8239b7ff1c53f5b, type: 3}
  - {fileID: 21300000, guid: ceab949bb28a94cdab5268152f980551, type: 3}
  - {fileID: 21300000, guid: f4278bab1083348bfb84d1a05c282fed, type: 3}
  - {fileID: 21300000, guid: 1043faeb9f9d8462eb33131306c923e5, type: 3}
  - {fileID: 21300000, guid: 7a6bbf3e7976f44c288cdc7b2de07974, type: 3}
  - {fileID: 21300000, guid: 4a753c1f5b53c4dd08aa685a6aef59c7, type: 3}
  - {fileID: 21300000, guid: 490e7f3fdc2cc4647af5971ff65fb981, type: 3}
  - {fileID: 21300000, guid: 27243f5ff1ce242409186ae3d4f1e7f3, type: 3}
  - {fileID: 21300000, guid: 69e4d59f6155b4d9ba6ea7479d79c579, type: 3}
  - {fileID: 21300000, guid: b85371bf573f14714babd20e0dc9c242, type: 3}
  m_PackedSpriteNamesToIndex:
  - 10008
  - 10002
  - 10013
  - 10008
  - 10006
  - 10003
  - 10001
  - 10005
  - 10005
  - 10012
  - 10001
  - 10010
  - 10001
  - 10006
  - 10004
  - 10009
  - 10002
  - 10013
  - 10011
  - 10009
  - 10002
  - 10011
  - 10007
  - 10010
  - 10003
  - 10003
  - 10004
  - 10012
  - 10007
  m_Tag: Poseidon Atlas
  m_IsVariant: 0
