%YAML 1.1
%TAG !u! tag:unity3d.com,2011:
--- !u!74 &7400000
AnimationClip:
  m_ObjectHideFlags: 0
  m_CorrespondingSourceObject: {fileID: 0}
  m_PrefabInstance: {fileID: 0}
  m_PrefabAsset: {fileID: 0}
  m_Name: Atemis
  serializedVersion: 6
  m_Legacy: 0
  m_Compressed: 0
  m_UseHighQualityCurve: 1
  m_RotationCurves: []
  m_CompressedRotationCurves: []
  m_EulerCurves: []
  m_PositionCurves: []
  m_ScaleCurves: []
  m_FloatCurves: []
  m_PPtrCurves:
  - curve:
    - time: 0
      value: {fileID: 21300000, guid: 466e1a286f99449098e645e07b0f5ca6, type: 3}
    - time: 0.06666667
      value: {fileID: 21300000, guid: e4d9346beba3e46c2b1aaab63ff22787, type: 3}
    - time: 0.13333334
      value: {fileID: 21300000, guid: 46e195431109f4c1bb56d9bae07a1c42, type: 3}
    - time: 0.2
      value: {fileID: 21300000, guid: 9168fb7710b9d46b5b5d4f9debea5eae, type: 3}
    - time: 0.26666668
      value: {fileID: 21300000, guid: 5e8218c72afe44ae483ae30d24b19018, type: 3}
    - time: 0.33333334
      value: {fileID: 21300000, guid: c72fa071887ff4b1b8211b8b64d00888, type: 3}
    - time: 0.4
      value: {fileID: 21300000, guid: 9e233488148d242ddb97a64a311bb92f, type: 3}
    - time: 0.46666667
      value: {fileID: 21300000, guid: ab63c041a0eb345b9990dc194d62d30d, type: 3}
    attribute: m_Sprite
    path: 
    classID: 114
    script: {fileID: 11500000, guid: fe87c0e1cc204ed48ad3b37840f39efc, type: 3}
  m_SampleRate: 15
  m_WrapMode: 0
  m_Bounds:
    m_Center: {x: 0, y: 0, z: 0}
    m_Extent: {x: 0, y: 0, z: 0}
  m_ClipBindingConstant:
    genericBindings:
    - serializedVersion: 2
      path: 0
      attribute: 2015549526
      script: {fileID: 11500000, guid: fe87c0e1cc204ed48ad3b37840f39efc, type: 3}
      typeID: 114
      customType: 0
      isPPtrCurve: 1
    pptrCurveMapping:
    - {fileID: 21300000, guid: 466e1a286f99449098e645e07b0f5ca6, type: 3}
    - {fileID: 21300000, guid: e4d9346beba3e46c2b1aaab63ff22787, type: 3}
    - {fileID: 21300000, guid: 46e195431109f4c1bb56d9bae07a1c42, type: 3}
    - {fileID: 21300000, guid: 9168fb7710b9d46b5b5d4f9debea5eae, type: 3}
    - {fileID: 21300000, guid: 5e8218c72afe44ae483ae30d24b19018, type: 3}
    - {fileID: 21300000, guid: c72fa071887ff4b1b8211b8b64d00888, type: 3}
    - {fileID: 21300000, guid: 9e233488148d242ddb97a64a311bb92f, type: 3}
    - {fileID: 21300000, guid: ab63c041a0eb345b9990dc194d62d30d, type: 3}
  m_AnimationClipSettings:
    serializedVersion: 2
    m_AdditiveReferencePoseClip: {fileID: 0}
    m_AdditiveReferencePoseTime: 0
    m_StartTime: 0
    m_StopTime: 0.53333336
    m_OrientationOffsetY: 0
    m_Level: 0
    m_CycleOffset: 0
    m_HasAdditiveReferencePose: 0
    m_LoopTime: 1
    m_LoopBlend: 0
    m_LoopBlendOrientation: 0
    m_LoopBlendPositionY: 0
    m_LoopBlendPositionXZ: 0
    m_KeepOriginalOrientation: 0
    m_KeepOriginalPositionY: 1
    m_KeepOriginalPositionXZ: 0
    m_HeightFromFeet: 0
    m_Mirror: 0
  m_EditorCurves: []
  m_EulerEditorCurves: []
  m_HasGenericRootTransform: 0
  m_HasMotionFloatCurves: 0
  m_Events: []
