%YAML 1.1
%TAG !u! tag:unity3d.com,2011:
--- !u!74 &7400000
AnimationClip:
  m_ObjectHideFlags: 0
  m_CorrespondingSourceObject: {fileID: 0}
  m_PrefabInstance: {fileID: 0}
  m_PrefabAsset: {fileID: 0}
  m_Name: right
  serializedVersion: 6
  m_Legacy: 0
  m_Compressed: 0
  m_UseHighQualityCurve: 1
  m_RotationCurves: []
  m_CompressedRotationCurves: []
  m_EulerCurves: []
  m_PositionCurves: []
  m_ScaleCurves: []
  m_FloatCurves: []
  m_PPtrCurves:
  - curve:
    - time: 0
      value: {fileID: 21300000, guid: 068fed8e3d70646e8a7e33491d9ec360, type: 3}
    - time: 0.083333336
      value: {fileID: 21300000, guid: a1f8eb80a32ec4d9cb2558430aa41e96, type: 3}
    - time: 0.16666667
      value: {fileID: 21300000, guid: c521267ebbb4c40ec96304a3af4159e8, type: 3}
    - time: 0.25
      value: {fileID: 21300000, guid: 6c03c3cfe07d14a59b874c403a6c191f, type: 3}
    - time: 0.33333334
      value: {fileID: 21300000, guid: ca310b80515aa4d20a3ee665a0c0bebe, type: 3}
    - time: 0.41666666
      value: {fileID: 21300000, guid: 1a74febad585646d385e6c9bb1b70772, type: 3}
    - time: 0.5
      value: {fileID: 21300000, guid: d9ebb0f6613c84173ba1e841c306a314, type: 3}
    - time: 0.5833333
      value: {fileID: 21300000, guid: b13cbaa545bd84ce5b86f2bd5d22cdfd, type: 3}
    - time: 0.6666667
      value: {fileID: 21300000, guid: b195a4c0fddfb417b9e272092d8de627, type: 3}
    - time: 0.75
      value: {fileID: 21300000, guid: 25dac90b31e25406d8b0e41cea68be74, type: 3}
    - time: 0.8333333
      value: {fileID: 21300000, guid: 3f83709ade4b548f8b6c57a8d16396c9, type: 3}
    - time: 0.9166667
      value: {fileID: 21300000, guid: 6acca9c57a4d24fd9bc9da43fa62f77a, type: 3}
    - time: 1
      value: {fileID: 21300000, guid: 53a8e776bcbdc406d8b13519fa2354a0, type: 3}
    attribute: m_Sprite
    path: 
    classID: 212
    script: {fileID: 0}
  m_SampleRate: 12
  m_WrapMode: 0
  m_Bounds:
    m_Center: {x: 0, y: 0, z: 0}
    m_Extent: {x: 0, y: 0, z: 0}
  m_ClipBindingConstant:
    genericBindings:
    - serializedVersion: 2
      path: 0
      attribute: 0
      script: {fileID: 0}
      typeID: 212
      customType: 23
      isPPtrCurve: 1
    pptrCurveMapping:
    - {fileID: 21300000, guid: 068fed8e3d70646e8a7e33491d9ec360, type: 3}
    - {fileID: 21300000, guid: a1f8eb80a32ec4d9cb2558430aa41e96, type: 3}
    - {fileID: 21300000, guid: c521267ebbb4c40ec96304a3af4159e8, type: 3}
    - {fileID: 21300000, guid: 6c03c3cfe07d14a59b874c403a6c191f, type: 3}
    - {fileID: 21300000, guid: ca310b80515aa4d20a3ee665a0c0bebe, type: 3}
    - {fileID: 21300000, guid: 1a74febad585646d385e6c9bb1b70772, type: 3}
    - {fileID: 21300000, guid: d9ebb0f6613c84173ba1e841c306a314, type: 3}
    - {fileID: 21300000, guid: b13cbaa545bd84ce5b86f2bd5d22cdfd, type: 3}
    - {fileID: 21300000, guid: b195a4c0fddfb417b9e272092d8de627, type: 3}
    - {fileID: 21300000, guid: 25dac90b31e25406d8b0e41cea68be74, type: 3}
    - {fileID: 21300000, guid: 3f83709ade4b548f8b6c57a8d16396c9, type: 3}
    - {fileID: 21300000, guid: 6acca9c57a4d24fd9bc9da43fa62f77a, type: 3}
    - {fileID: 21300000, guid: 53a8e776bcbdc406d8b13519fa2354a0, type: 3}
  m_AnimationClipSettings:
    serializedVersion: 2
    m_AdditiveReferencePoseClip: {fileID: 0}
    m_AdditiveReferencePoseTime: 0
    m_StartTime: 0
    m_StopTime: 1.0833334
    m_OrientationOffsetY: 0
    m_Level: 0
    m_CycleOffset: 0
    m_HasAdditiveReferencePose: 0
    m_LoopTime: 1
    m_LoopBlend: 0
    m_LoopBlendOrientation: 0
    m_LoopBlendPositionY: 0
    m_LoopBlendPositionXZ: 0
    m_KeepOriginalOrientation: 0
    m_KeepOriginalPositionY: 1
    m_KeepOriginalPositionXZ: 0
    m_HeightFromFeet: 0
    m_Mirror: 0
  m_EditorCurves: []
  m_EulerEditorCurves: []
  m_HasGenericRootTransform: 0
  m_HasMotionFloatCurves: 0
  m_Events: []
