%YAML 1.1
%TAG !u! tag:unity3d.com,2011:
--- !u!74 &7400000
AnimationClip:
  m_ObjectHideFlags: 0
  m_CorrespondingSourceObject: {fileID: 0}
  m_PrefabInstance: {fileID: 0}
  m_PrefabAsset: {fileID: 0}
  m_Name: right
  serializedVersion: 6
  m_Legacy: 0
  m_Compressed: 0
  m_UseHighQualityCurve: 1
  m_RotationCurves: []
  m_CompressedRotationCurves: []
  m_EulerCurves: []
  m_PositionCurves: []
  m_ScaleCurves: []
  m_FloatCurves: []
  m_PPtrCurves:
  - curve:
    - time: 0
      value: {fileID: 21300000, guid: 6eb41d820084c450385e8e689b9c5247, type: 3}
    - time: 0.083333336
      value: {fileID: 21300000, guid: 7121f5e1729ff4bed8cbe56349bf1345, type: 3}
    - time: 0.16666667
      value: {fileID: 21300000, guid: db80830c85d3a46168ff18e294417108, type: 3}
    - time: 0.25
      value: {fileID: 21300000, guid: 3cbe3180459194ac5851ca0ef7d8ee01, type: 3}
    - time: 0.33333334
      value: {fileID: 21300000, guid: f61b43419150f415581c8bacf6acc946, type: 3}
    - time: 0.41666666
      value: {fileID: 21300000, guid: 64e500e53fc7e4b9d819fa462ea443b1, type: 3}
    - time: 0.5
      value: {fileID: 21300000, guid: 34dca9dd00ab04336a27f22dba9c16e3, type: 3}
    - time: 0.5833333
      value: {fileID: 21300000, guid: 038c9ce3c0d2d4178bca25b843584ad9, type: 3}
    - time: 0.6666667
      value: {fileID: 21300000, guid: 3d6c42f958c314d3e9fcfdddf47d3cc6, type: 3}
    - time: 0.75
      value: {fileID: 21300000, guid: 2720632ab4d314e1b96b7046766a87ec, type: 3}
    - time: 0.8333333
      value: {fileID: 21300000, guid: aad8d5df727b741d0ba7d16f17d2c863, type: 3}
    - time: 0.9166667
      value: {fileID: 21300000, guid: 93cd4d8be3b6a4fc49dd6e3faa6beb85, type: 3}
    - time: 1
      value: {fileID: 21300000, guid: 628b74f12f09b4483a7360a2f1546cd9, type: 3}
    attribute: m_Sprite
    path: 
    classID: 212
    script: {fileID: 0}
  m_SampleRate: 12
  m_WrapMode: 0
  m_Bounds:
    m_Center: {x: 0, y: 0, z: 0}
    m_Extent: {x: 0, y: 0, z: 0}
  m_ClipBindingConstant:
    genericBindings:
    - serializedVersion: 2
      path: 0
      attribute: 0
      script: {fileID: 0}
      typeID: 212
      customType: 23
      isPPtrCurve: 1
    pptrCurveMapping:
    - {fileID: 21300000, guid: 6eb41d820084c450385e8e689b9c5247, type: 3}
    - {fileID: 21300000, guid: 7121f5e1729ff4bed8cbe56349bf1345, type: 3}
    - {fileID: 21300000, guid: db80830c85d3a46168ff18e294417108, type: 3}
    - {fileID: 21300000, guid: 3cbe3180459194ac5851ca0ef7d8ee01, type: 3}
    - {fileID: 21300000, guid: f61b43419150f415581c8bacf6acc946, type: 3}
    - {fileID: 21300000, guid: 64e500e53fc7e4b9d819fa462ea443b1, type: 3}
    - {fileID: 21300000, guid: 34dca9dd00ab04336a27f22dba9c16e3, type: 3}
    - {fileID: 21300000, guid: 038c9ce3c0d2d4178bca25b843584ad9, type: 3}
    - {fileID: 21300000, guid: 3d6c42f958c314d3e9fcfdddf47d3cc6, type: 3}
    - {fileID: 21300000, guid: 2720632ab4d314e1b96b7046766a87ec, type: 3}
    - {fileID: 21300000, guid: aad8d5df727b741d0ba7d16f17d2c863, type: 3}
    - {fileID: 21300000, guid: 93cd4d8be3b6a4fc49dd6e3faa6beb85, type: 3}
    - {fileID: 21300000, guid: 628b74f12f09b4483a7360a2f1546cd9, type: 3}
  m_AnimationClipSettings:
    serializedVersion: 2
    m_AdditiveReferencePoseClip: {fileID: 0}
    m_AdditiveReferencePoseTime: 0
    m_StartTime: 0
    m_StopTime: 1.0833334
    m_OrientationOffsetY: 0
    m_Level: 0
    m_CycleOffset: 0
    m_HasAdditiveReferencePose: 0
    m_LoopTime: 1
    m_LoopBlend: 0
    m_LoopBlendOrientation: 0
    m_LoopBlendPositionY: 0
    m_LoopBlendPositionXZ: 0
    m_KeepOriginalOrientation: 0
    m_KeepOriginalPositionY: 1
    m_KeepOriginalPositionXZ: 0
    m_HeightFromFeet: 0
    m_Mirror: 0
  m_EditorCurves: []
  m_EulerEditorCurves: []
  m_HasGenericRootTransform: 0
  m_HasMotionFloatCurves: 0
  m_Events: []
