%YAML 1.1
%TAG !u! tag:unity3d.com,2011:
--- !u!687078895 &4343727234628468602
SpriteAtlas:
  m_ObjectHideFlags: 0
  m_CorrespondingSourceObject: {fileID: 0}
  m_PrefabInstance: {fileID: 0}
  m_PrefabAsset: {fileID: 0}
  m_Name: Cerberus Atlas
  m_EditorData:
    serializedVersion: 2
    textureSettings:
      serializedVersion: 2
      anisoLevel: 1
      compressionQuality: 50
      maxTextureSize: 2048
      textureCompression: 0
      filterMode: 1
      generateMipMaps: 0
      readable: 0
      crunchedCompression: 0
      sRGB: 1
    platformSettings: []
    packingSettings:
      serializedVersion: 2
      padding: 4
      blockOffset: 1
      allowAlphaSplitting: 0
      enableRotation: 1
      enableTightPacking: 1
    variantMultiplier: 1
    packables:
    - {fileID: 102900000, guid: 62d6a862db86d4e5590d312a42bc4f55, type: 3}
    - {fileID: 102900000, guid: b5681a812605e493f8743a46b28d6cf7, type: 3}
    - {fileID: 102900000, guid: 7fdd6658f611b4e178a134f4b7d39ee9, type: 3}
    totalSpriteSurfaceArea: 1752064
    bindAsDefault: 1
    isAtlasV2: 0
    cachedData: {fileID: 0}
  m_MasterAtlas: {fileID: 0}
  m_PackedSprites:
  - {fileID: 21300000, guid: 85fb5a803cd6f493c9e2f2aa8230ae99, type: 3}
  - {fileID: 21300000, guid: bec49ab0963fb49af8ab5e436ba65ada, type: 3}
  - {fileID: 21300000, guid: db6c22926548749c29c561491a620d1b, type: 3}
  - {fileID: 21300000, guid: 8d346c43fcb0144cfbbda01025a475f7, type: 3}
  - {fileID: 21300000, guid: 6859ff432151b4f7a8af6253ef6a6ace, type: 3}
  - {fileID: 21300000, guid: e6438853967f0435ba95e155e216ae8b, type: 3}
  - {fileID: 21300000, guid: c68bd44403fe64e6cafa473a12129454, type: 3}
  - {fileID: 21300000, guid: be943c5419c4a4c73aa3d688bf3d173d, type: 3}
  - {fileID: 21300000, guid: e0d3eba4254344009bca73e3da4a8dad, type: 3}
  - {fileID: 21300000, guid: c66e5dd49261b4622b5bf150fa7dfe72, type: 3}
  - {fileID: 21300000, guid: 6ee49af493d2f4d0095942a08eb77f5b, type: 3}
  - {fileID: 21300000, guid: edc587d5ec47c4bc3bdcb12aac44f131, type: 3}
  - {fileID: 21300000, guid: 2e196ce55a74d45a28812e0dca8a7e1d, type: 3}
  - {fileID: 21300000, guid: bae5abb62a4464dc3889474ea02ac6e9, type: 3}
  - {fileID: 21300000, guid: 33d76997240fa4d939babcceb8dec06e, type: 3}
  - {fileID: 21300000, guid: 45381f97acb5a4b60a52511c9968dc1a, type: 3}
  - {fileID: 21300000, guid: d0591a5832d0b4aeba2728cce51f5eea, type: 3}
  - {fileID: 21300000, guid: 4e1d7e092ec04435bbe98666d8a60605, type: 3}
  - {fileID: 21300000, guid: d0c7df19ba69346aca288612bb78af95, type: 3}
  - {fileID: 21300000, guid: 843548a9435804100bb28fa3745124d3, type: 3}
  - {fileID: 21300000, guid: d002c1aa1288c418f944ac14aab8d39d, type: 3}
  - {fileID: 21300000, guid: 0e197fba6b9a448fd8dbae31c838b2fa, type: 3}
  - {fileID: 21300000, guid: 718f09fa6196d499f883d7669d22f027, type: 3}
  - {fileID: 21300000, guid: bfbcbe8b001b14e21a7648283008cae0, type: 3}
  - {fileID: 21300000, guid: b4e1a3db008b94afc921e0a8e0eb65b0, type: 3}
  - {fileID: 21300000, guid: 8e129d3c1a661418f95f7487bb7613ad, type: 3}
  - {fileID: 21300000, guid: 778ee67cee3884f08bd550bc34cdbf4b, type: 3}
  - {fileID: 21300000, guid: 07ec81ad160fc48209a45a5e09f6c29f, type: 3}
  - {fileID: 21300000, guid: 24d52fae595104d16ac364d72947aef2, type: 3}
  m_PackedSpriteNamesToIndex:
  - 10009
  - 10011
  - 10003
  - 10013
  - 10001
  - 10008
  - 10005
  - 10002
  - 10004
  - 10007
  - 10005
  - 10011
  - 10003
  - 10007
  - 10012
  - 10013
  - 10002
  - 10012
  - 10010
  - 10008
  - 10010
  - 10003
  - 10006
  - 10004
  - 10001
  - 10009
  - 10006
  - 10001
  - 10002
  m_Tag: Cerberus Atlas
  m_IsVariant: 0
