%YAML 1.1
%TAG !u! tag:unity3d.com,2011:
--- !u!74 &7400000
AnimationClip:
  m_ObjectHideFlags: 0
  m_CorrespondingSourceObject: {fileID: 0}
  m_PrefabInstance: {fileID: 0}
  m_PrefabAsset: {fileID: 0}
  m_Name: right
  serializedVersion: 6
  m_Legacy: 0
  m_Compressed: 0
  m_UseHighQualityCurve: 1
  m_RotationCurves: []
  m_CompressedRotationCurves: []
  m_EulerCurves: []
  m_PositionCurves: []
  m_ScaleCurves: []
  m_FloatCurves: []
  m_PPtrCurves:
  - curve:
    - time: 0
      value: {fileID: 21300000, guid: 07ec81ad160fc48209a45a5e09f6c29f, type: 3}
    - time: 0.083333336
      value: {fileID: 21300000, guid: 24d52fae595104d16ac364d72947aef2, type: 3}
    - time: 0.16666667
      value: {fileID: 21300000, guid: 2e196ce55a74d45a28812e0dca8a7e1d, type: 3}
    - time: 0.25
      value: {fileID: 21300000, guid: e0d3eba4254344009bca73e3da4a8dad, type: 3}
    - time: 0.33333334
      value: {fileID: 21300000, guid: c68bd44403fe64e6cafa473a12129454, type: 3}
    - time: 0.41666666
      value: {fileID: 21300000, guid: 718f09fa6196d499f883d7669d22f027, type: 3}
    - time: 0.5
      value: {fileID: 21300000, guid: c66e5dd49261b4622b5bf150fa7dfe72, type: 3}
    - time: 0.5833333
      value: {fileID: 21300000, guid: e6438853967f0435ba95e155e216ae8b, type: 3}
    - time: 0.6666667
      value: {fileID: 21300000, guid: 85fb5a803cd6f493c9e2f2aa8230ae99, type: 3}
    - time: 0.75
      value: {fileID: 21300000, guid: d0c7df19ba69346aca288612bb78af95, type: 3}
    - time: 0.8333333
      value: {fileID: 21300000, guid: edc587d5ec47c4bc3bdcb12aac44f131, type: 3}
    - time: 0.9166667
      value: {fileID: 21300000, guid: 33d76997240fa4d939babcceb8dec06e, type: 3}
    - time: 1
      value: {fileID: 21300000, guid: 8d346c43fcb0144cfbbda01025a475f7, type: 3}
    attribute: m_Sprite
    path: 
    classID: 212
    script: {fileID: 0}
  m_SampleRate: 12
  m_WrapMode: 0
  m_Bounds:
    m_Center: {x: 0, y: 0, z: 0}
    m_Extent: {x: 0, y: 0, z: 0}
  m_ClipBindingConstant:
    genericBindings:
    - serializedVersion: 2
      path: 0
      attribute: 0
      script: {fileID: 0}
      typeID: 212
      customType: 23
      isPPtrCurve: 1
    pptrCurveMapping:
    - {fileID: 21300000, guid: 07ec81ad160fc48209a45a5e09f6c29f, type: 3}
    - {fileID: 21300000, guid: 24d52fae595104d16ac364d72947aef2, type: 3}
    - {fileID: 21300000, guid: 2e196ce55a74d45a28812e0dca8a7e1d, type: 3}
    - {fileID: 21300000, guid: e0d3eba4254344009bca73e3da4a8dad, type: 3}
    - {fileID: 21300000, guid: c68bd44403fe64e6cafa473a12129454, type: 3}
    - {fileID: 21300000, guid: 718f09fa6196d499f883d7669d22f027, type: 3}
    - {fileID: 21300000, guid: c66e5dd49261b4622b5bf150fa7dfe72, type: 3}
    - {fileID: 21300000, guid: e6438853967f0435ba95e155e216ae8b, type: 3}
    - {fileID: 21300000, guid: 85fb5a803cd6f493c9e2f2aa8230ae99, type: 3}
    - {fileID: 21300000, guid: d0c7df19ba69346aca288612bb78af95, type: 3}
    - {fileID: 21300000, guid: edc587d5ec47c4bc3bdcb12aac44f131, type: 3}
    - {fileID: 21300000, guid: 33d76997240fa4d939babcceb8dec06e, type: 3}
    - {fileID: 21300000, guid: 8d346c43fcb0144cfbbda01025a475f7, type: 3}
  m_AnimationClipSettings:
    serializedVersion: 2
    m_AdditiveReferencePoseClip: {fileID: 0}
    m_AdditiveReferencePoseTime: 0
    m_StartTime: 0
    m_StopTime: 1.0833334
    m_OrientationOffsetY: 0
    m_Level: 0
    m_CycleOffset: 0
    m_HasAdditiveReferencePose: 0
    m_LoopTime: 1
    m_LoopBlend: 0
    m_LoopBlendOrientation: 0
    m_LoopBlendPositionY: 0
    m_LoopBlendPositionXZ: 0
    m_KeepOriginalOrientation: 0
    m_KeepOriginalPositionY: 1
    m_KeepOriginalPositionXZ: 0
    m_HeightFromFeet: 0
    m_Mirror: 0
  m_EditorCurves: []
  m_EulerEditorCurves: []
  m_HasGenericRootTransform: 0
  m_HasMotionFloatCurves: 0
  m_Events: []
