%YAML 1.1
%TAG !u! tag:unity3d.com,2011:
--- !u!74 &7400000
AnimationClip:
  m_ObjectHideFlags: 0
  m_CorrespondingSourceObject: {fileID: 0}
  m_PrefabInstance: {fileID: 0}
  m_PrefabAsset: {fileID: 0}
  m_Name: breakTile
  serializedVersion: 6
  m_Legacy: 0
  m_Compressed: 0
  m_UseHighQualityCurve: 1
  m_RotationCurves: []
  m_CompressedRotationCurves: []
  m_EulerCurves: []
  m_PositionCurves: []
  m_ScaleCurves: []
  m_FloatCurves: []
  m_PPtrCurves:
  - curve:
    - time: 0
      value: {fileID: 21300000, guid: 2f164db40fa854d5f8ebc5bb0fa5eb92, type: 3}
    - time: 0.083333336
      value: {fileID: 21300000, guid: 7255b33158216483183de86b94a207cd, type: 3}
    - time: 0.16666667
      value: {fileID: 21300000, guid: 1de67fd2855634779a2f9202ee940b8d, type: 3}
    - time: 0.25
      value: {fileID: 21300000, guid: aec35f2d73c41432eaa639913969262f, type: 3}
    - time: 0.33333334
      value: {fileID: 21300000, guid: d0337d301946b4c9f8b8d4c479138614, type: 3}
    - time: 0.41666666
      value: {fileID: 21300000, guid: 9e99d84e74a3341c2a99f19c5a42e2eb, type: 3}
    - time: 0.5
      value: {fileID: 21300000, guid: 102d0873a4cab4e1892b4f0a5d92d19e, type: 3}
    - time: 0.5833333
      value: {fileID: 21300000, guid: df3591a30c11a4aaa8f40f06add5d3e6, type: 3}
    - time: 0.6666667
      value: {fileID: 21300000, guid: a565a36be29b6421aaa18dde9488d279, type: 3}
    attribute: m_Sprite
    path: 
    classID: 212
    script: {fileID: 0}
  m_SampleRate: 12
  m_WrapMode: 0
  m_Bounds:
    m_Center: {x: 0, y: 0, z: 0}
    m_Extent: {x: 0, y: 0, z: 0}
  m_ClipBindingConstant:
    genericBindings:
    - serializedVersion: 2
      path: 0
      attribute: 0
      script: {fileID: 0}
      typeID: 212
      customType: 23
      isPPtrCurve: 1
    pptrCurveMapping:
    - {fileID: 21300000, guid: 2f164db40fa854d5f8ebc5bb0fa5eb92, type: 3}
    - {fileID: 21300000, guid: 7255b33158216483183de86b94a207cd, type: 3}
    - {fileID: 21300000, guid: 1de67fd2855634779a2f9202ee940b8d, type: 3}
    - {fileID: 21300000, guid: aec35f2d73c41432eaa639913969262f, type: 3}
    - {fileID: 21300000, guid: d0337d301946b4c9f8b8d4c479138614, type: 3}
    - {fileID: 21300000, guid: 9e99d84e74a3341c2a99f19c5a42e2eb, type: 3}
    - {fileID: 21300000, guid: 102d0873a4cab4e1892b4f0a5d92d19e, type: 3}
    - {fileID: 21300000, guid: df3591a30c11a4aaa8f40f06add5d3e6, type: 3}
    - {fileID: 21300000, guid: a565a36be29b6421aaa18dde9488d279, type: 3}
  m_AnimationClipSettings:
    serializedVersion: 2
    m_AdditiveReferencePoseClip: {fileID: 0}
    m_AdditiveReferencePoseTime: 0
    m_StartTime: 0
    m_StopTime: 0.75
    m_OrientationOffsetY: 0
    m_Level: 0
    m_CycleOffset: 0
    m_HasAdditiveReferencePose: 0
    m_LoopTime: 0
    m_LoopBlend: 0
    m_LoopBlendOrientation: 0
    m_LoopBlendPositionY: 0
    m_LoopBlendPositionXZ: 0
    m_KeepOriginalOrientation: 0
    m_KeepOriginalPositionY: 1
    m_KeepOriginalPositionXZ: 0
    m_HeightFromFeet: 0
    m_Mirror: 0
  m_EditorCurves: []
  m_EulerEditorCurves: []
  m_HasGenericRootTransform: 0
  m_HasMotionFloatCurves: 0
  m_Events:
  - time: 0.75
    functionName: OnAniamtionEnd
    data: 
    objectReferenceParameter: {fileID: 0}
    floatParameter: 0
    intParameter: 0
    messageOptions: 0
