%YAML 1.1
%TAG !u! tag:unity3d.com,2011:
--- !u!74 &7400000
AnimationClip:
  m_ObjectHideFlags: 0
  m_CorrespondingSourceObject: {fileID: 0}
  m_PrefabInstance: {fileID: 0}
  m_PrefabAsset: {fileID: 0}
  m_Name: Ares
  serializedVersion: 6
  m_Legacy: 0
  m_Compressed: 0
  m_UseHighQualityCurve: 1
  m_RotationCurves: []
  m_CompressedRotationCurves: []
  m_EulerCurves: []
  m_PositionCurves: []
  m_ScaleCurves: []
  m_FloatCurves: []
  m_PPtrCurves:
  - curve:
    - time: 0
      value: {fileID: 21300000, guid: 0b6037fae6d5d4a68a4d4a02eb6704d7, type: 3}
    - time: 0.06666667
      value: {fileID: 21300000, guid: 89c3f359ef61a4855b29145e8d792933, type: 3}
    - time: 0.13333334
      value: {fileID: 21300000, guid: 8492d4f7fc302484884d1a107e56dc5d, type: 3}
    - time: 0.2
      value: {fileID: 21300000, guid: 769a1cd892fe34f43a5dd97dff453e71, type: 3}
    - time: 0.26666668
      value: {fileID: 21300000, guid: 33500711c60554a5facbe447fe9459a6, type: 3}
    - time: 0.33333334
      value: {fileID: 21300000, guid: ac085ce752ac346769a482e997b27e63, type: 3}
    - time: 0.4
      value: {fileID: 21300000, guid: d52401121b2804f65ad4efbee8c86572, type: 3}
    - time: 0.46666667
      value: {fileID: 21300000, guid: 558f3fc1b47bd44bda68d007a1ff599e, type: 3}
    attribute: m_Sprite
    path: 
    classID: 114
    script: {fileID: 11500000, guid: fe87c0e1cc204ed48ad3b37840f39efc, type: 3}
  m_SampleRate: 15
  m_WrapMode: 0
  m_Bounds:
    m_Center: {x: 0, y: 0, z: 0}
    m_Extent: {x: 0, y: 0, z: 0}
  m_ClipBindingConstant:
    genericBindings:
    - serializedVersion: 2
      path: 0
      attribute: 2015549526
      script: {fileID: 11500000, guid: fe87c0e1cc204ed48ad3b37840f39efc, type: 3}
      typeID: 114
      customType: 0
      isPPtrCurve: 1
    pptrCurveMapping:
    - {fileID: 21300000, guid: 0b6037fae6d5d4a68a4d4a02eb6704d7, type: 3}
    - {fileID: 21300000, guid: 89c3f359ef61a4855b29145e8d792933, type: 3}
    - {fileID: 21300000, guid: 8492d4f7fc302484884d1a107e56dc5d, type: 3}
    - {fileID: 21300000, guid: 769a1cd892fe34f43a5dd97dff453e71, type: 3}
    - {fileID: 21300000, guid: 33500711c60554a5facbe447fe9459a6, type: 3}
    - {fileID: 21300000, guid: ac085ce752ac346769a482e997b27e63, type: 3}
    - {fileID: 21300000, guid: d52401121b2804f65ad4efbee8c86572, type: 3}
    - {fileID: 21300000, guid: 558f3fc1b47bd44bda68d007a1ff599e, type: 3}
  m_AnimationClipSettings:
    serializedVersion: 2
    m_AdditiveReferencePoseClip: {fileID: 0}
    m_AdditiveReferencePoseTime: 0
    m_StartTime: 0
    m_StopTime: 0.53333336
    m_OrientationOffsetY: 0
    m_Level: 0
    m_CycleOffset: 0
    m_HasAdditiveReferencePose: 0
    m_LoopTime: 1
    m_LoopBlend: 0
    m_LoopBlendOrientation: 0
    m_LoopBlendPositionY: 0
    m_LoopBlendPositionXZ: 0
    m_KeepOriginalOrientation: 0
    m_KeepOriginalPositionY: 1
    m_KeepOriginalPositionXZ: 0
    m_HeightFromFeet: 0
    m_Mirror: 0
  m_EditorCurves: []
  m_EulerEditorCurves: []
  m_HasGenericRootTransform: 0
  m_HasMotionFloatCurves: 0
  m_Events: []
