%YAML 1.1
%TAG !u! tag:unity3d.com,2011:
--- !u!74 &7400000
AnimationClip:
  m_ObjectHideFlags: 0
  m_CorrespondingSourceObject: {fileID: 0}
  m_PrefabInstance: {fileID: 0}
  m_PrefabAsset: {fileID: 0}
  m_Name: Hercules
  serializedVersion: 6
  m_Legacy: 0
  m_Compressed: 0
  m_UseHighQualityCurve: 1
  m_RotationCurves: []
  m_CompressedRotationCurves: []
  m_EulerCurves: []
  m_PositionCurves: []
  m_ScaleCurves: []
  m_FloatCurves: []
  m_PPtrCurves:
  - curve:
    - time: 0
      value: {fileID: 21300000, guid: 72023751d5c3340df82d637ed9f205c4, type: 3}
    - time: 0.06666667
      value: {fileID: 21300000, guid: 1df4a3e54621340f4990a2171c1790b6, type: 3}
    - time: 0.13333334
      value: {fileID: 21300000, guid: eeed7d73f52c2499689be6ab002fe32a, type: 3}
    - time: 0.2
      value: {fileID: 21300000, guid: 6099828235b394d9d9a04abe8cdbfede, type: 3}
    - time: 0.26666668
      value: {fileID: 21300000, guid: e0b811a1a8dcf4ae7b30329902c7b05b, type: 3}
    - time: 0.33333334
      value: {fileID: 21300000, guid: 294bd3494c70446b1b260f38f9df7520, type: 3}
    - time: 0.4
      value: {fileID: 21300000, guid: f5d9b2d145f43487f9ae665593acf832, type: 3}
    - time: 0.46666667
      value: {fileID: 21300000, guid: e845fbdc667874152a3a2c6811bd4ab0, type: 3}
    attribute: m_Sprite
    path: 
    classID: 114
    script: {fileID: 11500000, guid: fe87c0e1cc204ed48ad3b37840f39efc, type: 3}
  m_SampleRate: 15
  m_WrapMode: 0
  m_Bounds:
    m_Center: {x: 0, y: 0, z: 0}
    m_Extent: {x: 0, y: 0, z: 0}
  m_ClipBindingConstant:
    genericBindings:
    - serializedVersion: 2
      path: 0
      attribute: 2015549526
      script: {fileID: 11500000, guid: fe87c0e1cc204ed48ad3b37840f39efc, type: 3}
      typeID: 114
      customType: 0
      isPPtrCurve: 1
    pptrCurveMapping:
    - {fileID: 21300000, guid: 72023751d5c3340df82d637ed9f205c4, type: 3}
    - {fileID: 21300000, guid: 1df4a3e54621340f4990a2171c1790b6, type: 3}
    - {fileID: 21300000, guid: eeed7d73f52c2499689be6ab002fe32a, type: 3}
    - {fileID: 21300000, guid: 6099828235b394d9d9a04abe8cdbfede, type: 3}
    - {fileID: 21300000, guid: e0b811a1a8dcf4ae7b30329902c7b05b, type: 3}
    - {fileID: 21300000, guid: 294bd3494c70446b1b260f38f9df7520, type: 3}
    - {fileID: 21300000, guid: f5d9b2d145f43487f9ae665593acf832, type: 3}
    - {fileID: 21300000, guid: e845fbdc667874152a3a2c6811bd4ab0, type: 3}
  m_AnimationClipSettings:
    serializedVersion: 2
    m_AdditiveReferencePoseClip: {fileID: 0}
    m_AdditiveReferencePoseTime: 0
    m_StartTime: 0
    m_StopTime: 0.53333336
    m_OrientationOffsetY: 0
    m_Level: 0
    m_CycleOffset: 0
    m_HasAdditiveReferencePose: 0
    m_LoopTime: 1
    m_LoopBlend: 0
    m_LoopBlendOrientation: 0
    m_LoopBlendPositionY: 0
    m_LoopBlendPositionXZ: 0
    m_KeepOriginalOrientation: 0
    m_KeepOriginalPositionY: 1
    m_KeepOriginalPositionXZ: 0
    m_HeightFromFeet: 0
    m_Mirror: 0
  m_EditorCurves: []
  m_EulerEditorCurves: []
  m_HasGenericRootTransform: 0
  m_HasMotionFloatCurves: 0
  m_Events: []
